\relax 
\@writefile{toc}{\contentsline {section}{\numberline {1}Test Program}{1}}
\@writefile{toc}{\contentsline {section}{\numberline {2}DIV/REM extensions to Sodor}{2}}
\@writefile{toc}{\contentsline {section}{\numberline {3}Multicycle DIV Instruction}{3}}
\@writefile{lof}{\contentsline {figure}{\numberline {1}{\ignorespaces Non-restoring Division Algorithm. \emph  {Source: StackOverflow}}}{4}}
\@writefile{toc}{\contentsline {section}{\numberline {4}Appendix}{6}}
\@writefile{toc}{\contentsline {subsection}{\numberline {4.1}Question 1 -- Test Program}{6}}
\@writefile{toc}{\contentsline {subsection}{\numberline {4.2}Question 3 -- Non-restoring division}{7}}
